<svg width="25" height="24" viewBox="0 0 25 24" fill="none" xmlns="http://www.w3.org/2000/svg">
<circle cx="4.89941" cy="12" r="2" fill="#21262E"/>
<circle cx="12.8994" cy="12" r="2" fill="#21262E"/>
<circle cx="20.8994" cy="12" r="2" fill="#21262E"/>
</svg>
