<svg width="18" height="18" viewBox="0 0 18 18" fill="none" xmlns="http://www.w3.org/2000/svg">
<path d="M9 16C5.16438 16 2 12.8836 2 9C2 5.11644 5.16438 2 9 2C12.8356 2 16 5.16438 16 9C16 12.8356 12.8836 16 9 16ZM9 2.76712C5.54795 2.76712 2.76712 5.54795 2.76712 9C2.76712 12.4521 5.54795 15.2329 9 15.2329C12.4521 15.2329 15.2329 12.4521 15.2329 9C15.2329 5.54795 12.4521 2.76712 9 2.76712Z" fill="#FBFBFB"/>
<path d="M8.95171 10.726C8.75993 10.726 8.56815 10.5342 8.56815 10.3425C8.56815 9.47945 8.66404 8.66438 9.4791 8.28082C10.0544 8.0411 10.0544 7.36986 10.0544 7.32192C10.0544 7.13014 10.0065 6.26712 8.99965 6.26712C7.9928 6.26712 7.94486 7.22603 7.94486 7.36986C7.94486 7.56164 7.75308 7.75342 7.5613 7.70548C7.36952 7.70548 7.17773 7.5137 7.17773 7.32192C7.22568 6.69863 7.60924 5.5 8.99965 5.5C9.52705 5.5 9.95856 5.64384 10.2942 5.97945C10.8216 6.50685 10.8216 7.27397 10.8216 7.32192C10.8216 7.36986 10.8216 8.52055 9.76678 8.95205C9.4791 9.09589 9.28732 9.33562 9.28732 10.2945C9.28732 10.5822 9.14349 10.726 8.95171 10.726Z" fill="#FBFBFB"/>
<path d="M8.99977 12.5C8.80799 12.5 8.61621 12.3083 8.61621 12.1165C8.61621 11.9247 8.76005 11.7329 8.99977 11.7329C9.19155 11.7329 9.38333 11.9247 9.38333 12.1165C9.38333 12.3083 9.2395 12.5 8.99977 12.5Z" fill="#FBFBFB"/>
</svg>
